Place,Name,Country,Age,BodyweightKg,Division,WeightClassKg,Squat1Kg,Squat2Kg,Squat3Kg,Best3SquatKg,Bench1Kg,Bench2Kg,Bench3Kg,Bench4Kg,Best3BenchKg,Deadlift1Kg,Deadlift2Kg,Deadlift3Kg,Deadlift4Kg,Best3DeadliftKg,TotalKg,Sex,Equipment,Event,BirthDate
1,Peter Razenböck,Austria,41,80.8,M 40-49,82.5,180,-190,190,190,120,125,-130,,125,260,-270,270,,270,585,M,Wraps,SBD,
1,Mario Maier,Germany,45,94.3,M 40-49,95,-240,240,-260,240,125,130,135,,135,240,270,285,,285,660,M,Wraps,SBD,
2,Horváth Károly,Hungary,43,93,M 40-49,95,260,270,-280,270,120,130,-135,,130,230,245,-255,,245,645,M,Wraps,SBD,
1,Tábor Antal,Hungary,44,102.4,M 40-49,110,220,240,250,250,160,170,,,170,240,260,-270,,260,680,M,Wraps,SBD,
2,Pavel Kolibár,Slovakia,49,107.6,M 40-49,110,-175,185,195,195,140,145,-150,,145,205,215,225,,225,565,M,Wraps,SBD,
3,Marcel Baláž,Slovakia,46,108,M 40-49,110,-160,160,180,180,177.5,187.5,190,,190,160,180,-190,,180,550,M,Wraps,SBD,
1,Michael Pischinger,Austria,45,124.8,M 40-49,125,280,300,,300,190,200,206,,206,260,275,-282.5,,275,781,M,Wraps,SBD,
2,Marek Makarewicz,Poland,44,125,M 40-49,125,260,-280,-280,260,200,-210,-210,,200,270,-290,-290,,270,730,M,Wraps,SBD,
1,Bencze Gábor,Hungary,45,129.3,M 40-49,125+,325,347.5,352.5,352.5,205,212.5,217.5,,217.5,-325,-325,325,,325,895,M,Wraps,SBD,
1,Michael Schmidt,Germany,53,80.6,M 50-59,82.5,220,230,250,250,140,150,160,,160,230,250,255,,255,665,M,Wraps,SBD,
1,Anton Frič,Slovakia,50,93.7,M 50-59,95,,250,270,270,155,167.5,172.5,,172.5,240,,257.5,,257.5,700,M,Wraps,SBD,
2,Ronny Stein,Germany,51,89,M 50-59,95,215,230,237.5,237.5,125,130,-132.5,,130,220,240,-245,,240,607.5,M,Wraps,SBD,
3,Kai Gißler,Germany,53,90.5,M 50-59,95,180,-190,-190,180,115,120,-122.5,,120,200,210,-220,,210,510,M,Wraps,SBD,
1,František Nováček,Czechia,58,108.8,M 50-59,110,230,240,250,250,180,185,190,,190,240,250,260,,260,700,M,Wraps,SBD,
2,Marco Lamprecht,Germany,50,108.9,M 50-59,110,235,,,235,132.5,140,-147.5,,140,210,230,242.5,,242.5,617.5,M,Wraps,SBD,
3,Marián Hudec,Slovakia,53,107.7,M 50-59,110,220,-240,-240,220,120,-130,,,120,235,250,-255,,250,590,M,Wraps,SBD,
4,Dominik Grajciar,Slovakia,51,103.7,M 50-59,110,-90,100,-110,100,90,-100,100,,100,120,130,-140,,130,330,M,Wraps,SBD,
1,Gagik Tonoyan,Armenia,57,112.2,M 50-59,125,240,250,260,260,100,110,120,,120,255,270,280,,280,660,M,Wraps,SBD,
2,Amgad Rida-Tupy,Austria,53,117.9,M 50-59,125,250,265,270.5,270.5,130,140,-145,,140,225,240,247.5,,247.5,658,M,Wraps,SBD,
3,Bernd Beyer,Germany,55,124.2,M 50-59,125,-140,140,145,145,90,-95,95,,95,140,-150,150,,150,390,M,Wraps,SBD,
1,José Fleury,Switzerland,64,81.3,M 60-69,82.5,140,150,160,160,85,90,95,,95,160,170,175,,175,430,M,Wraps,SBD,
2,Mieczysłąw Maczka,Germany,69,82.5,M 60-69,82.5,130,142.5,152.5,152.5,95,102.5,107.5,,107.5,130,150,160,,160,420,M,Wraps,SBD,
DQ,Tibor Zvada,Slovakia,65,79.2,M 60-69,82.5,-100,-100,-100,,,,,,,,,,,,,M,Wraps,SBD,
1,Viktor Bracht,Germany,63,89.4,M 60-69,95,190,207.5,215,215,110,115,117.5,,117.5,210,217.5,,,217.5,550,M,Wraps,SBD,
1,Jaroslav Šolc,Slovakia,66,104.8,M 60-69,110,190,200,210,210,155,160,-165,,160,190,200,210,,210,580,M,Wraps,SBD,
2,Adam Urbański,Poland,61,107.6,M 60-69,110,180,-200,200,200,150,160,165,,165,190,200,-215,,200,565,M,Wraps,SBD,
1,Kovács Zsolt,Hungary,60,122,M 60-69,125,60,80,,80,80,90,-102.5,,90,130,140,-150,,140,310,M,Wraps,SBD,
1,Smuk Ferenc,Hungary,71,91.4,M 70-74,95,225,235,242.5,242.5,90,95,100,,100,220,230,240,,240,582.5,M,Wraps,SBD,
1,Jozef Meravý,Slovakia,73,98.5,M 70-74,110,80,-130,-130,80,70,85,-90,,85,150,170,180,,180,345,M,Wraps,SBD,
2,Panajotis Bachcevanidis,Czechia,72,100.7,M 70-74,110,85,95,105,105,75,80,85,,85,110,130,-135,,130,320,M,Wraps,SBD,
1,Jozef Bartek,Slovakia,78,78.3,M 75-79,82.5,40,-50,50,50,50,55,-60,,55,60,70,80,,80,185,M,Wraps,SBD,
1,Florián Tichý,Slovakia,36,66.7,Open,67.5,185,195,-205,195,145,150,-155,,150,220,230,-235,,230,575,M,Wraps,SBD,
1,Gergely Kuti,Hungary,30,81.8,Open,82.5,-285,300,-310,300,145,155,160,,160,285,305,-315,,305,765,M,Wraps,SBD,
2,Radovan Matesz,Slovakia,26,82.1,Open,82.5,200,205,-210,205,125,130,132.5,,132.5,240,250,-255,,250,587.5,M,Wraps,SBD,
3,Oliver Apfelthaler,Austria,27,82,Open,82.5,170,190,-205,190,110,120,125,,125,230,240,250,,250,565,M,Wraps,SBD,
4,Lukáš Lörinc,Slovakia,24,81.6,Open,82.5,185,195,-202.5,195,125,130,132.5,,132.5,-200,200,-230,,200,527.5,M,Wraps,SBD,
5,Jakub Dorčák,Slovakia,26,80.5,Open,82.5,160,170,-175,170,112.5,-117.5,117.5,,117.5,-225,225,-240,,225,512.5,M,Wraps,SBD,
6,Thomas Teleki,Austria,35,76.5,Open,82.5,160,-180,-185,160,100,130,-140,,130,190,200,-212.5,,200,490,M,Wraps,SBD,
7,Christoph Kolar,Austria,31,75.3,Open,82.5,155,165,172.5,172.5,100,-102.5,102.5,,102.5,190,205,210,,210,485,M,Wraps,SBD,
8,Maik Schubert,Germany,33,73.1,Open,82.5,160,-170,-170,160,-112.5,112.5,-115,,112.5,170,180,-190,,180,452.5,M,Wraps,SBD,
1,Zdenko Bystrianský,Slovakia,34,92.6,Open,95,280,295,305,305,155,160,165,,165,270,-280,-280,,270,740,M,Wraps,SBD,
2,Daniel Eckert #1,Germany,33,93.5,Open,95,235,250,-255,250,170,180,-185,,180,230,250,-260,,250,680,M,Wraps,SBD,
3,Alex Ross,Iceland,33,87.8,Open,95,230,255,-260,255,150,-170,170,,170,220,245,-255,,245,670,M,Wraps,SBD,
4,Sascha Fischer,Switzerland,31,94.3,Open,95,255,-267.5,267.5,267.5,130,-140,,,130,250,267.5,-275,,267.5,665,M,Wraps,SBD,
5,Oskar Kleinoscheg,Austria,22,89.1,Open,95,230,245,250,250,-167.5,170,-175,,170,225,237.5,-245,,237.5,657.5,M,Wraps,SBD,
6,Lucas John,Germany,26,94.1,Open,95,207.5,217.5,225,225,130,140,142.5,,142.5,255,265,272.5,,272.5,640,M,Wraps,SBD,
7,Konstantin Davy,Austria,33,94.4,Open,95,210,-220,-220,210,150,160,-165,,160,225,235,242.5,,242.5,612.5,M,Wraps,SBD,
8,Dr Sohajda Kristóf,Hungary,30,92.8,Open,95,165,180,187.5,187.5,110,120,-125,,120,170,182.5,-200,,182.5,490,M,Wraps,SBD,
DQ,Fabian Senftner,Austria,25,94.6,Open,95,270,285,302.5,302.5,155,160,165,,165,-300,-300,-300,,,,M,Wraps,SBD,
DQ,Roman Salbrechter,Austria,35,93.3,Open,95,-240,-250,-250,,,,,,,,,,,,,M,Wraps,SBD,
1,Tumpek Róbert,Hungary,30,105.1,Open,110,325,345,-352.5,345,180,185,-190,,185,320,340,-352.5,,340,870,M,Wraps,SBD,
2,Marek Molnár,Slovakia,29,99.1,Open,110,260,270,-275,270,170,180,-185,,180,285,-305,,,285,735,M,Wraps,SBD,
3,René Černý,Slovakia,27,99.7,Open,110,280,-300,-300,280,160,-170,,,160,280,-300,-300,,280,720,M,Wraps,SBD,
4,Dominik Štefečka,Slovakia,28,106.9,Open,110,230,-245,-245,230,135,145,-157.5,,145,240,265,-280,,265,640,M,Wraps,SBD,
DQ,Manuel Schreiner,Austria,33,109.7,Open,110,-230,-230,-230,,,,,,,,,,,,,M,Wraps,SBD,
1,Nikita Galenko,Germany,24,124.9,Open,125,300,325,-335,325,185,-195,195,,195,280,295,310,,310,830,M,Wraps,SBD,
2,Hamza Botić,Bosnia and Herzegovina,29,111.9,Open,125,260,280,-290,280,-175,185,192.5,,192.5,320,340,355,,355,827.5,M,Wraps,SBD,
3,Knoll Ronald,Austria,36,122,Open,125,282.5,302.5,-310,302.5,185,200,-202.5,,200,302.5,320,-325,,320,822.5,M,Wraps,SBD,
4,Andrej Lukačovič,Slovakia,28,123.9,Open,125,-245,245,280,280,160,-172.5,172.5,,172.5,280,-310,310,,310,762.5,M,Wraps,SBD,
5,Tristan Bauer,Austria,38,116.4,Open,125,255,-277.5,277.5,277.5,175,182.5,-185,,182.5,290,-305,-305,,290,750,M,Wraps,SBD,
6,Lukáš Krupaš,Slovakia,31,124.9,Open,125,-260,-260,260,260,-190,190,205,,205,270,-280,-280,,270,735,M,Wraps,SBD,
1,Roman Jelínek,Czechia,25,135.8,Open,125+,360,381,400,400,210,220,-230,,220,300,320,-330,,320,940,M,Wraps,SBD,
2,Marek Lipták,Slovakia,44,130.4,Open,125+,320,,,320,210,-220,,,210,300,-320,,,300,830,M,Wraps,SBD,
3,Michael Bauder,Austria,26,157.5,Open,125+,210,230,235,235,140,150,-155,,150,190,205,-215,,205,590,M,Wraps,SBD,
1,Amadea Carol Reidingerová,Czechia,17,58.2,Teen,60,-90,-100,100,100,45,50,52.5,,52.5,80,90,95,,95,247.5,F,Wraps,SBD,
1,Gabriela Poláčková,Czechia,18,60.2,Teen,67.5,55,65,75,75,30,35,40,,40,100,115,130,,130,245,F,Wraps,SBD,
DQ,Pavlína Rakučáková,Slovakia,19,76.9,Teen,82.5,155,-165,165,165,90,95,100,,100,,,,,,,F,Wraps,SBD,
1,Tóth Fanni,Hungary,23,52.9,Junior,60,85,95,100,100,52.5,57.5,60,,60,105,-112.5,-115,,105,265,F,Wraps,SBD,
1,Sylvia Schmidt,Germany,40,54.7,M 40-49,60,80,90,95,95,50,52.5,-55,,52.5,105,112.5,120,,120,267.5,F,Wraps,SBD,
1,Tuba Henrietta,Hungary,48,65.1,M 40-49,67.5,115,120,125,125,85,90,92.5,,92.5,150,160,167.5,,167.5,385,F,Wraps,SBD,
1,Stefanie Rida-Tupy,Austria,40,70.3,M 40-49,82.5,85,100,105,105,47.5,52.5,-57.5,,52.5,107.5,120,125,,125,282.5,F,Wraps,SBD,
2,Klaudia Tanczos,Slovakia,49,74.9,M 40-49,82.5,80,85,90,90,47.5,-50,50,,50,105,-112.5,-112.5,,105,245,F,Wraps,SBD,
1,Andrea Chromčová,Slovakia,47,82.9,M 40-49,90,105,110,120,120,70.5,,,,70.5,150,161,167.5,,167.5,358,F,Wraps,SBD,
1,Palecian Judit,Hungary,51,59.1,M 50-59,60,95,105,110,110,,65,70,72.5,70,110,120,125,133,125,305,F,Wraps,SBD,
2,Cailleau Colette,Switzerland,50,58.8,M 50-59,60,90,-95,-95,90,50,55,57.5,,57.5,100,105,110,,110,257.5,F,Wraps,SBD,
1,Katarína Zajková,Slovakia,62,67.4,M 60-69,67.5,120,,,120,45,60,,,60,150,160,170,180,170,350,F,Wraps,SBD,
1,Julita Kotynska,Poland,24,50.2,Open,52,100,105,107.5,107.5,50,-55,55,,55,132.5,140,145,,145,307.5,F,Wraps,SBD,
2,Radoslava Tóth,Slovakia,35,51.1,Open,52,80,85,90,90,47.5,50,52.5,,52.5,110,115,-120,,115,257.5,F,Wraps,SBD,
1,Marina Schermer,Germany,38,56.8,Open,60,147.5,155,162.5,162.5,90,95,,,95,150,160,170,,170,427.5,F,Wraps,SBD,
2,Mariya Grigoryan,Armenia,31,57.6,Open,60,160,,,160,85,-92.5,92.5,,92.5,150,155,-157.5,,155,407.5,F,Wraps,SBD,
3,Roksolana Busko,Ukraine,27,56.9,Open,60,155,162.5,-167.5,162.5,72.5,77.5,82.5,,82.5,145,155,160,,160,405,F,Wraps,SBD,
4,Lucia Ďurčová,Slovakia,24,59.6,Open,60,135,145,150,150,45,50,-52.5,,50,150,-160,160,,160,360,F,Wraps,SBD,
5,Samra Alebič,Bosnia and Herzegovina,24,57.5,Open,60,140,155,,155,50,55,60,,60,120,-130,130,,130,345,F,Wraps,SBD,
6,Bianca Al-Wazzan,Austria,36,54.4,Open,60,95,-100,100,100,45,50,-52.5,,50,110,115,117.5,,117.5,267.5,F,Wraps,SBD,
1,Jana Loureiro-Bade,Germany,28,66.4,Open,67.5,150,-160,-165,150,67.5,72.5,-77.5,,72.5,140,145,150,,150,372.5,F,Wraps,SBD,
2,Veronika Greinerová,Slovakia,26,66.7,Open,67.5,85,-95,105,105,-65,70,72.5,,72.5,120,-130,130,,130,307.5,F,Wraps,SBD,
3,Louise Dalgren,Denmark,40,64.3,Open,67.5,-95,105,-115,105,50,57.5,-65,,57.5,105,120,132.5,,132.5,295,F,Wraps,SBD,
1,Tompa Eszter,Hungary,38,78.7,Open,82.5,160,175,185,185,75,82.5,-85,,82.5,150,162.5,172.5,,172.5,440,F,Wraps,SBD,
2,Marlies Gruber,Austria,25,72.2,Open,82.5,145,152.5,160,160,77.5,82.5,-87.5,,82.5,160,-167.5,175,,175,417.5,F,Wraps,SBD,
3,Petra Vaščáková,Slovakia,17,81.1,Open,82.5,145,152.5,157.5,157.5,70,75,-80,,75,160,172.5,-187.5,,172.5,405,F,Wraps,SBD,
1,Adam Mišík,Slovakia,18,67.2,Teen,67.5,140,150,-155,150,95,100,-102.5,,100,200,,,,200,450,M,Wraps,SBD,
2,Samuel Kubík,Slovakia,17,63.9,Teen,67.5,-140,140,-160,140,90,-100,-100,,90,170,180,-200,,180,410,M,Wraps,SBD,
3,Libor Bodjan,Slovakia,18,60.4,Teen,67.5,110,125,135,135,85,92.5,95,,95,140,152.5,160,,160,390,M,Wraps,SBD,
1,Gal Maršič,Slovenia,19,81.1,Teen,82.5,260,-280,280,280,140,150,160,,160,240,260,270,,270,710,M,Wraps,SBD,
2,Samuel Hippík,Slovakia,19,80.9,Teen,82.5,210,215,-220,215,110,-112.5,-112.5,,110,-245,245,250,,250,575,M,Wraps,SBD,
3,Roman Markov,Slovakia,19,81.6,Teen,82.5,-195,-210,210,210,110,-120,120,,120,210,225,230,,230,560,M,Wraps,SBD,
4,Csáki Dániel Ronaldo,Hungary,19,74.5,Teen,82.5,160,-170,170,170,115,120,125,,125,190,205,-210,,205,500,M,Wraps,SBD,
5,Alexander Michálek,Slovakia,18,80.8,Teen,82.5,-155,165,-175,165,80,90,95,,95,185,210,227.5,,227.5,487.5,M,Wraps,SBD,
6,Jozef Suchánek,Slovakia,17,68.1,Teen,82.5,125,132.5,-140,132.5,87.5,-95,-95,,87.5,180,187.5,-200,,187.5,407.5,M,Wraps,SBD,
1,Frederik Jendraššák,Slovakia,18,86.8,Teen,95,200,225,-235,225,130,-140,-140,,130,215,235,-250,,235,590,M,Wraps,SBD,
2,Martin Szombath,Slovakia,18,90,Teen,95,180,192.5,-200,192.5,117.5,130,-140,,130,190,200,210,,210,532.5,M,Wraps,SBD,
3,Kozma József Tibor,Hungary,18,90.7,Teen,95,180,192.5,202.5,202.5,95,102.5,107.5,,107.5,197.5,207.5,-215,,207.5,517.5,M,Wraps,SBD,
4,Kryštof Polák,Czechia,19,82.6,Teen,95,160,-170,170,170,95,102.5,105,,105,-230,240,-255,,240,515,M,Wraps,SBD,
5,Adam Wimmer,Czechia,18,84.1,Teen,95,165,175,180,180,97.5,100,102.5,,102.5,-210,215,222.5,,222.5,505,M,Wraps,SBD,
6,Abbas Karaman,Austria,19,89.4,Teen,95,130,145,-160,145,100,110,-115,,110,140,150,160,,160,415,M,Wraps,SBD,
7,Maroš Kuzma,Slovakia,19,83.1,Teen,95,135,145,-165,145,85,-95,95,,95,-170,-170,170,,170,410,M,Wraps,SBD,
1,Stanislav Végfalvi,Slovakia,16,106.8,Teen,110,-270,280,-300,280,140,150,160,,160,260,270,-280,,270,710,M,Wraps,SBD,
2,Sebastián Kušnier,Slovakia,19,101.2,Teen,110,225,240,250,250,140,-155,155,,155,260,282.5,-300,,282.5,687.5,M,Wraps,SBD,
1,Holéczy Péter,Hungary,17,116.5,Teen,125,215,230,250,250,125,135,-145,,135,230,250,,,250,635,M,Wraps,SBD,
1,Till-Corvin Klösel,Germany,20,65.9,Junior,67.5,130,145,162.5,162.5,90,100,-105,,100,170,180,200,,200,462.5,M,Wraps,SBD,
2,Martin Macháč,Slovakia,23,67,Junior,67.5,-160,-160,160,160,-95,95,100,,100,185,-192.5,-192.5,,185,445,M,Wraps,SBD,
1,Jakub Koeijvoets,Poland,23,82.4,Junior,82.5,-215,215,230,230,140,150,-160,,150,250,265,-275,,265,645,M,Wraps,SBD,
2,Adam Jusko,Slovakia,20,81.5,Junior,82.5,200,210,-220,210,130,137.5,140,,140,235,245,250,,250,600,M,Wraps,SBD,
3,Mandel Tamás,Hungary,23,81.3,Junior,82.5,200,215,-225,215,140,150,155,,155,210,220,225,,225,595,M,Wraps,SBD,
4,Miroslav Sobota,Slovakia,21,75.6,Junior,82.5,205,220,227.5,227.5,130,137.5,-142.5,,137.5,200,215,220,,220,585,M,Wraps,SBD,
5,Dennis Runge,Germany,23,77.9,Junior,82.5,190,200,-205,200,145,152.5,155,,155,-225,225,-235,,225,580,M,Wraps,SBD,
6,Adrián Lašák,Slovakia,21,75.9,Junior,82.5,165,175,185,185,92.5,102.5,-110,,102.5,175,185,-197.5,,185,472.5,M,Wraps,SBD,
1,Michal Sorát,Slovakia,23,94.2,Junior,95,235,255,265,265,135,145,150,,150,320,,340,,340,755,M,Wraps,SBD,
2,Tomáš Plaček,Czechia,23,93.9,Junior,95,250,-270,-270,250,135,142.5,145,,145,250,265,-270,,265,660,M,Wraps,SBD,
3,Dárius Bučo,Slovakia,22,93.5,Junior,95,230,245,-255,245,150,-160,-160,,150,240,255,-265,,255,650,M,Wraps,SBD,
4,Jakub Khan,Czechia,20,92.1,Junior,95,210,230,-240,230,140,150,155,,155,230,-240,-240,,230,615,M,Wraps,SBD,
5,Peter Franc,Slovakia,23,89.3,Junior,95,200,210,-220,210,115,120,-125,,120,260,-270,-270,,260,590,M,Wraps,SBD,
6,Arne Becker,Germany,21,85.2,Junior,95,210,-222.5,-225,210,142.5,-147.5,-147.5,,142.5,210,225,-232.5,,225,577.5,M,Wraps,SBD,
1,Richard Leng,Slovakia,23,104.6,Junior,110,-240,240,252.5,252.5,155,162.5,-170,,162.5,290,307.5,315,,315,730,M,Wraps,SBD,
2,Adam Kyzlink,Czechia,21,106.7,Junior,110,240,260,280,280,150,160,-165,,160,240,260,280,,280,720,M,Wraps,SBD,
3,Baji László,Hungary,21,102,Junior,110,210,-230,240,240,120,135,-140,,135,220,240,260,,260,635,M,Wraps,SBD,
4,Johannes Fiedler,Germany,20,108.6,Junior,110,240,252.5,-257.5,252.5,127.5,-135,135,,135,235,-250,-250,,235,622.5,M,Wraps,SBD,
1,Adam Egermaier,Czechia,23,117.6,Junior,125,220,240,260,260,170,180,185,,185,270,290,-305,,290,735,M,Wraps,SBD,
1,Tomáš Komjaty,Slovakia,21,158.6,Junior,125+,300,325,350,350,220,230,,,230,300,-320,320,,320,900,M,Wraps,SBD,
1,Petra Vaščáková,Slovakia,17,83.1,Teen,90,,,,,70.5,77.5,80,85,80,,,,,,80,F,Multi-ply,B,
1,Némethné Tál Lívia,Hungary,51,66.5,M 50-59,67.5,,,,,55,-60,,,55,,,,,,55,F,Multi-ply,B,
1,Anita Riedl,Germany,58,99,M 50-59,100,,,,,85,-95,-95,,85,,,,,,85,F,Multi-ply,B,
1,Sabine Allner,Germany,39,128.6,Open,125+,,,,,-150,150,,,150,,,,,,150,F,Multi-ply,B,
1,Milan Vojačik,Slovakia,22,65,Junior,67.5,,,,,-127.5,127.5,135,,135,,,,,,135,M,Multi-ply,B,
1,Lukáš Jenšovský,Czechia,23,81.4,Junior,82.5,,,,,125,-130,132.5,,132.5,,,,,,132.5,M,Multi-ply,B,
2,Darek Janovský,Czechia,23,80.3,Junior,82.5,,,,,-120,120,-127.5,,120,,,,,,120,M,Multi-ply,B,
1,Marián Janovský,Czechia,23,94.7,Junior,95,,,,,172.5,177.5,-187.5,,177.5,,,,,,177.5,M,Multi-ply,B,
2,Tadeáš Souček,Czechia,23,92.4,Junior,95,,,,,140,-150,150,,150,,,,,,150,M,Multi-ply,B,
3,Kökényesi Dávid,Hungary,23,91.9,Junior,95,,,,,115,-135,140,,140,,,,,,140,M,Multi-ply,B,
1,Kevin Loboda,Germany,20,101.4,Junior,110,,,,,-180,180,200,,200,,,,,,200,M,Multi-ply,B,
2,Markus Bischof,Austria,20,98.8,Junior,110,,,,,135,145,-165,,145,,,,,,145,M,Multi-ply,B,
1,Oliver Krajčovič,Slovakia,21,117.5,Junior,125,,,,,180,190,-200,,190,,,,,,190,M,Multi-ply,B,
1,Alexander Vrana,Austria,48,92.4,M 40-49,95,,,,,205,-207.5,-207.5,,205,,,,,,205,M,Multi-ply,B,
2,Tölli Károly,Hungary,43,86.4,M 40-49,95,,,,,120,-125,130,,130,,,,,,130,M,Multi-ply,B,
1,Miloš Ćećanović,Montenegro,45,103.8,M 40-49,110,,,,,170,190,-207.5,,190,,,,,,190,M,Multi-ply,B,
2,Győri Zoltán,Hungary,48,99.9,M 40-49,110,,,,,185,-202.5,-207.5,,185,,,,,,185,M,Multi-ply,B,
1,Ján Šiska,Slovakia,43,120.2,M 40-49,125,,,,,202.5,207.5,-212.5,,207.5,,,,,,207.5,M,Multi-ply,B,
DQ,Peter Funtík,Slovakia,44,113.1,M 40-49,125,,,,,-200,-200,-200,,,,,,,,,M,Multi-ply,B,
1,Steffen Reisbach,Germany,55,86.8,M 50-59,95,,,,,180,185,-190,,185,,,,,,185,M,Multi-ply,B,
2,Mario Auer,Austria,50,91.8,M 50-59,95,,,,,-170,170,-187.5,,170,,,,,,170,M,Multi-ply,B,
1,Franz Gansinger,Austria,55,104.9,M 50-59,110,,,,,-170,172.5,-185,,172.5,,,,,,172.5,M,Multi-ply,B,
2,Kling Béla,Hungary,55,96.6,M 50-59,110,,,,,170,-182.5,-185,,170,,,,,,170,M,Multi-ply,B,
3,Boris Švirec,Slovakia,59,108.2,M 50-59,110,,,,,-130,130,-135,,130,,,,,,130,M,Multi-ply,B,
1,Günther Hold,Austria,56,115,M 50-59,125,,,,,240,,,,240,,,,,,240,M,Multi-ply,B,
1,Németh Károly,Hungary,52,140.7,M 50-59,125+,,,,,-190,190,,,190,,,,,,190,M,Multi-ply,B,
1,Tahvo Jauhojärvi,Sweden,61,73.8,M 60-69,82.5,,,,,-155,155,,,155,,,,,,155,M,Multi-ply,B,
1,Sztanke József,Hungary,69,93.3,M 60-69,95,,,,,150,160,170,,170,,,,,,170,M,Multi-ply,B,
2,Lothar Pritzl,Germany,63,91.6,M 60-69,95,,,,,125,135,-140,,135,,,,,,135,M,Multi-ply,B,
3,Mieczysłąw Maczka,Germany,69,84,M 60-69,95,,,,,95,110,,,110,,,,,,110,M,Multi-ply,B,
1,Franciszek Szabluk,Poland,67,101.8,M 60-69,110,,,,,-200,-200,200,,200,,,,,,200,M,Multi-ply,B,
DQ,Krystian Slosarek,Germany,65,108,M 60-69,110,,,,,-180,-202.5,-202.5,,,,,,,,,M,Multi-ply,B,
1,Erwin Trichlin,Austria,84,63.5,M 75-79,67.5,,,,,80,87.5,90,,90,,,,,,90,M,Multi-ply,B,
1,Thomas Böswarth,Austria,33,102.4,Open,110,,,,,175,182.5,190,,190,,,,,,190,M,Multi-ply,B,
DQ,Pavol Roba,Slovakia,39,108.2,Open,110,,,,,-170,-170,-170,,,,,,,,,M,Multi-ply,B,
1,Péter Pintér,Slovakia,38,119.4,Open,125,,,,,260,-270,270,,270,,,,,,270,M,Multi-ply,B,
1,Annalena Peluso,Germany,22,73.6,Junior,82.5,,,,,130,-140,-140,,130,,,,,,130,F,Unlimited,B,
1,Savanyu Klaudia,Hungary,18,56.8,Teen,60,,,,,-70,-75,75,,75,,,,,,75,F,Unlimited,B,
1,Balázs Ferenc,Hungary,53,105.2,M 50-59,110,,,,,310,-320,-320,,310,,,,,,310,M,Unlimited,B,
2,Helmut Kraus,Germany,52,102.6,M 50-59,110,,,,,-285,285,300,,300,,,,,,300,M,Unlimited,B,
1,Henning Tiedje,Germany,44,106.8,M 40-49,110,,,,,287.5,315,-320,,315,,,,,,315,M,Unlimited,B,
1,Daniel Kaufmann,Germany,47,94.4,M 40-49,95,,,,,275,-290,-300,,275,,,,,,275,M,Unlimited,B,
1,Uwe Haase,Germany,59,93.1,M 50-59,95,,,,,190,-222.5,222.5,,222.5,,,,,,222.5,M,Unlimited,B,
1,Živorad Marković,Serbia,62,92,M 60-69,95,,,,,180,-190,-200,,180,,,,,,180,M,Unlimited,B,
DQ,Søren Bertelsen,Denmark,62,99.6,M 60-69,110,,,,,-287.5,-287.5,,,,,,,,,,M,Unlimited,B,
1,Buda Richárd Zsolt,Hungary,30,134.4,Open,125+,,,,,-450,450,465,,465,,,,,,465,M,Unlimited,B,
1,Oláh Dániel,Hungary,25,92.3,Open,95,,,,,-310,-310,310,,310,,,,,,310,M,Unlimited,B,
2,Peter Sakala,Slovakia,27,131.6,Open,125+,,,,,-330,330,340,,340,,,,,,340,M,Unlimited,B,
1,Kevin Loboda,Germany,20,101.4,Junior,110,,,,,-280,280,-300,,280,,,,,,280,M,Unlimited,B,
DQ,Can Tosun,Germany,24,89.4,Open,95,,,,,-260,-280,-280,,,,,,,,,M,Unlimited,B,
DQ,Martin Kries,Germany,38,109.3,Open,110,,,,,-370,-370,-380,,,,,,,,,M,Unlimited,B,
DQ,Petr Bolf,Czechia,36,122.2,Open,125,,,,,-425,-425,-425,,,,,,,,,M,Unlimited,B,
1,Diana Štefanidesová,Slovakia,16,66.4,Teen,67.5,,,,,,,,,,100,121,,,121,121,F,Raw,D,
2,Vít Kolář,Czechia,19,85.5,Teen,95,,,,,,,,,,170,,,,170,170,M,Raw,D,
1,Samuel Daniš,Slovakia,22,90.6,Junior,95,,,,,,,,,,275,285,,,285,285,M,Raw,D,
1,Michal Buranský,Slovakia,43,81.1,M 40-49,82.5,,,,,,,,,,230,240,-247.5,,240,240,M,Raw,D,
2,Vlastimil Yacoub Bandik,Slovakia,42,74,M 40-49,82.5,,,,,,,,,,212.5,-217.5,-225,,212.5,212.5,M,Raw,D,
1,Štefan Sokoly,Slovakia,47,93.4,M 40-49,95,,,,,,,,,,270,285.5,292.5,300,292.5,292.5,M,Raw,D,
3,Marcel Vasilenko,Slovakia,44,92.2,M 40-49,95,,,,,,,,,,262.5,-272.5,-272.5,,262.5,262.5,M,Raw,D,
4,Ján Cuprišin,Slovakia,49,90.2,M 40-49,95,,,,,,,,,,240,260,-270,,260,260,M,Raw,D,
2,Hablicsek Norbert,Hungary,49,109.8,M 40-49,110,,,,,,,,,,270,287.5,307.5,,307.5,307.5,M,Raw,D,
6,Eck László,Hungary,45,97.9,M 40-49,110,,,,,,,,,,210,220,230,,230,230,M,Raw,D,
1,Steffen Reisbach,Germany,55,88.4,M 50-59,95,,,,,,,,,,225,,,,225,225,M,Raw,D,
1,Timo Schütt,Germany,50,124.9,M 50-59,125,,,,,,,,,,285,310,,,310,310,M,Raw,D,
4,Karol Kornel Repiský,Slovakia,59,124.9,M 50-59,125,,,,,,,,,,215,225,,,225,225,M,Raw,D,
4,Mieczysłąw Maczka,Germany,69,82.5,M 60-69,82.5,,,,,,,,,,135,,,,135,135,M,Raw,D,
2,Michal Červinka,Slovakia,63,90,M 60-69,95,,,,,,,,,,190,-200,,,190,190,M,Raw,D,
5,Lothar Pritzl,Germany,63,91.1,M 60-69,95,,,,,,,,,,-150,,150,,150,150,M,Raw,D,
DQ,Lothar Schulze,Germany,73,81.9,M 70-74,82.5,,,,,,,,,,-155,-170,,,,,M,Raw,D,
2,Heinz Mihoubi,Germany,75,95.9,M 75-79,110,,,,,,,,,,160,175,180,,180,180,M,Raw,D,
1,Ľubomír Samseli,Slovakia,37,82,Open,82.5,,,,,,,,,,240,250,-260,,250,250,M,Raw,D,
1,Tomáš Kríž,Slovakia,30,93,Open,95,,,,,,,,,,270,285.5,,,285.5,285.5,M,Raw,D,
1,Peter Lincmaier,Slovakia,39,97.4,Open,110,,,,,,,,,,260,275,-282.5,,275,275,M,Raw,D,
5,Mészáros Mátyás Sándor,Hungary,28,97.2,Open,110,,,,,,,,,,250,-270,-280,,250,250,M,Raw,D,
2,Tobias Blankenhorn,Germany,34,130.8,Open,125+,,,,,,,,,,260,-300,-300,,260,260,M,Raw,D,
1,Szilágyi Vivien,Hungary,17,50.4,Teen,52,,,,,,,,,,110,-120,-125,,110,110,F,Raw,D,
1,Marie Lipovská,Czechia,16,58.6,Teen,60,,,,,,,,,,90,100,110,,110,110,F,Raw,D,
2,Diana Štefanidesová,Slovakia,17,66.1,Teen,67.5,,,,,,,,,,100,110,-122.5,,110,110,F,Raw,D,
1,Petra Vaščáková,Slovakia,17,80,Teen,82.5,,,,,,,,,,160,170,175,,175,175,F,Raw,D,
1,Magdalena Szpila,Poland,21,50.6,Junior,52,,,,,,,,,,115,120,,,120,120,F,Raw,D,
2,Theresa Rühle,Germany,22,46.8,Junior,52,,,,,,,,,,90,100,102.5,,102.5,102.5,F,Raw,D,
1,Luzy Däullary,Germany,22,66.9,Junior,67.5,,,,,,,,,,100,107.5,115,,115,115,F,Raw,D,
2,Jessica Gißler,Germany,20,64.6,Junior,67.5,,,,,,,,,,95,105,112.5,,112.5,112.5,F,Raw,D,
1,Györökné Kati,Hungary,49,51.6,M 40-49,52,,,,,,,,,,-112.5,112.5,115,,115,115,F,Raw,D,
1,Sylvia Schmidt,Germany,40,56.3,M 40-49,60,,,,,,,,,,110,117.5,-125,,117.5,117.5,F,Raw,D,
1,Stáhlné Dagomir Dóra,Hungary,46,66.5,M 40-49,67.5,,,,,,,,,,120,130,135,,135,135,F,Raw,D,
1,Lilit Vardanyan,Armenia,48,75.2,M 40-49,82.5,,,,,,,,,,145,155,165,,165,165,F,Raw,D,
2,Sabina Oleksy,Poland,40,81.9,M 40-49,82.5,,,,,,,,,,100,115,-120,,115,115,F,Raw,D,
3,Klaudia Tanczos,Slovakia,49,74.8,M 40-49,82.5,,,,,,,,,,107.5,112.5,-117.5,,112.5,112.5,F,Raw,D,
1,Andrea Chromčová,Slovakia,47,82.6,M 40-49,90,,,,,,,,,,160,170,,,170,170,F,Raw,D,
1,Claudia Busse,Germany,44,100.9,M 40-49,90+,,,,,,,,,,120,125,130,,130,130,F,Raw,D,
1,Csonka Anikó,Hungary,55,61.6,M 50-59,67.5,,,,,,,,,,142.5,152.5,157,160,157,157,F,Raw,D,
1,Květuše Baranovičová,Slovakia,70,61.7,M 70-74,67.5,,,,,,,,,,80,-90,90,,90,90,F,Raw,D,
1,Božena Imreová,Slovakia,70,85.5,M 70-74,90,,,,,,,,,,55,60,65,70,65,65,F,Raw,D,
1,Kecskeméti Kinga,Hungary,34,43.3,Open,52,,,,,,,,,,120,125,,,125,125,F,Raw,D,
2,Armenuhi Hambaryan,Armenia,34,52,Open,52,,,,,,,,,,90,100,110,,110,110,F,Raw,D,
1,Dominika Samonek,Poland,25,54.8,Open,60,,,,,,,,,,135,140,,,140,140,F,Raw,D,
2,Eva Padová,Slovakia,33,58.9,Open,60,,,,,,,,,,100,110,,,110,110,F,Raw,D,
1,Herczeg Gyöngyi,Hungary,30,66.3,Open,67.5,,,,,,,,,,152.5,160,,,160,160,F,Raw,D,
2,Denise Framke,,26,66.1,Open,67.5,,,,,,,,,,95,,,,95,95,F,Raw,D,
1,Marcela Támarová,Slovakia,36,81.7,Open,82.5,,,,,,,,,,160,170,,,170,170,F,Raw,D,
2,Veronika Strolená,Czechia,38,75.8,Open,82.5,,,,,,,,,,155,165,,,165,165,F,Raw,D,
3,Miroslava Hrašková,Slovakia,34,78.6,Open,82.5,,,,,,,,,,150,155,160,,160,160,F,Raw,D,
1,Dominika Uhrová,Czechia,25,92.7,Open,90+,,,,,,,,,,175,,,,175,175,F,Raw,D,
1,Libor Bodjan,Slovakia,18,59.8,Teen,67.5,,,,,,,,,,140,162.5,172.5,,172.5,172.5,M,Raw,D,
2,Tomáš Parížek,Slovakia,19,54.1,Teen,67.5,,,,,,,,,,160,-170,-170,,160,160,M,Raw,D,
3,Michael Hager,Austria,16,67.1,Teen,67.5,,,,,,,,,,117.5,125,-130,,125,125,M,Raw,D,
1,Dávid Horváth,Slovakia,17,73.7,Teen,82.5,,,,,,,,,,190,210,-220,,210,210,M,Raw,D,
1,Pavol Nedoroščík,Slovakia,19,91.3,Teen,95,,,,,,,,,,220,-240,-240,,220,220,M,Raw,D,
1,Holéczy Péter,Hungary,17,117.8,Teen,125,,,,,,,,,,245,-250,250,,250,250,M,Raw,D,
2,Tóth Richárd Soma,Hungary,19,119.6,Teen,125,,,,,,,,,,-225,225,-247.5,,225,225,M,Raw,D,
2,Budai Dominik Patrik,Hungary,20,92,Junior,95,,,,,,,,,,257.5,-270,-275,,257.5,257.5,M,Raw,D,
3,Misi Dániel,Hungary,21,88.5,Junior,95,,,,,,,,,,250,-270,-272.5,,250,250,M,Raw,D,
1,Daniel Sokolowski,Poland,22,107.3,Junior,110,,,,,,,,,,290,-302.5,-302.5,,290,290,M,Raw,D,
DQ,Dávid Kominko,Slovakia,22,100,Junior,110,,,,,,,,,,-270,-270,,,,,M,Raw,D,
1,Adam Ťavoda,Slovakia,22,115.2,Junior,125,,,,,,,,,,250,-260,-270,,250,250,M,Raw,D,
1,Jonas Kirpeit,Germany,21,143.8,Junior,125+,,,,,,,,,,240,-250,-250,,240,240,M,Raw,D,
3,Csitkovics Péter,Hungary,44,71.3,M 40-49,82.5,,,,,,,,,,195,200,205,,205,205,M,Raw,D,
4,Martin Sýkora,Czechia,40,81.5,M 40-49,82.5,,,,,,,,,,180,-200,-200,,180,180,M,Raw,D,
2,Peter Razenböck,Austria,41,88.9,M 40-49,95,,,,,,,,,,265,-275,-280,,265,265,M,Raw,D,
6,Marcin Oleksy,Poland,42,94.8,M 40-49,95,,,,,,,,,,240,260,-267.5,,260,260,M,Raw,D,
5,Marek Roule,Czechia,40,93.5,M 40-49,95,,,,,,,,,,240,260,-267.5,,260,260,M,Raw,D,
7,László Horváth,Hungary,47,88.7,M 40-49,95,,,,,,,,,,-100,-115,130,,130,130,M,Raw,D,
DQ,Marián Csadi,Slovakia,49,91.2,M 40-49,95,,,,,,,,,,-230,-250,-250,,,,M,Raw,D,
1,Bocz Tamás,Hungary,41,108.7,M 40-49,110,,,,,,,,,,302.5,312.5,,,312.5,312.5,M,Raw,D,
3,Rostislav Boušek,Czechia,43,104.1,M 40-49,110,,,,,,,,,,250,290,-300,,290,290,M,Raw,D,
4,Vlastimil Kalaš,Czechia,44,108.5,M 40-49,110,,,,,,,,,,270,-285,-285,,270,270,M,Raw,D,
5,Johannes Kraft,Germany,44,106.2,M 40-49,110,,,,,,,,,,227.5,237.5,-245,,237.5,237.5,M,Raw,D,
1,Gubicza Pál,Hungary,42,122.9,M 40-49,125,,,,,,,,,,280,-292.5,-292.5,,280,280,M,Raw,D,
2,Nagy Krisztián,Hungary,46,119.2,M 40-49,125,,,,,,,,,,225,235,242.5,,242.5,242.5,M,Raw,D,
1,Markus Zehethofer,Austria,48,144.7,M 40-49,125+,,,,,,,,,,310,330,-340,,330,330,M,Raw,D,
2,Karalyos Tibor,Hungary,49,139.4,M 40-49,125+,,,,,,,,,,275,-290,,,275,275,M,Raw,D,
3,Manuel Steiner,Austria,42,137.3,M 40-49,125+,,,,,,,,,,265,-277.5,-277.5,,265,265,M,Raw,D,
4,Szűcs Krisztián,Hungary,41,164.7,M 40-49,125+,,,,,,,,,,225,235,247.5,,247.5,247.5,M,Raw,D,
5,Mariusz Wyrozębski,Poland,41,151,M 40-49,125+,,,,,,,,,,230,245,-267.5,,245,245,M,Raw,D,
1,Mirko Jaedtke-Schulze,Germany,56,67,M 50-59,67.5,,,,,,,,,,120,130,145,,145,145,M,Raw,D,
1,Michael Schmidt,Germany,53,82,M 50-59,82.5,,,,,,,,,,230,250,260,,260,260,M,Raw,D,
2,Reinhard Müller,Austria,55,82.2,M 50-59,82.5,,,,,,,,,,195,205,-212.5,,205,205,M,Raw,D,
3,Cutino Estrada Diosvanis Enrique,Hungary,51,76,M 50-59,82.5,,,,,,,,,,150,170,180,,180,180,M,Raw,D,
2,Kai Gißler,Germany,53,90.7,M 50-59,95,,,,,,,,,,200,210,-220,,210,210,M,Raw,D,
3,Milan Páleník,Slovakia,53,92.8,M 50-59,95,,,,,,,,,,160,180,190,,190,190,M,Raw,D,
DQ,Ronny Stein,Germany,51,88.9,M 50-59,95,,,,,,,,,,-220,-230,-230,,,,M,Raw,D,
1,Szép Szabolcs,Hungary,50,100.3,M 50-59,110,,,,,,,,,,225,235,250,,250,250,M,Raw,D,
2,Tibor Gejdoš,Slovakia,59,105,M 50-59,110,,,,,,,,,,225,250,-260,,250,250,M,Raw,D,
3,Marián Hudec,Slovakia,53,107.1,M 50-59,110,,,,,,,,,,230,250,-257.5,,250,250,M,Raw,D,
2,René Falk,Germany,53,118.3,M 50-59,125,,,,,,,,,,280,-295,-300,,280,280,M,Raw,D,
3,Richard Haberl,Austria,52,113.1,M 50-59,125,,,,,,,,,,245,252.5,260,,260,260,M,Raw,D,
1,Timo Schütt,Germany,50,126.2,M 50-59,125+,,,,,,,,,,285,302.5,,,302.5,302.5,M,Raw,D,
2,Oliver Dorsch,Germany,50,128.8,M 50-59,125+,,,,,,,,,,260,270,280,,280,280,M,Raw,D,
3,Olaf Schmugge,Germany,58,137.2,M 50-59,125+,,,,,,,,,,190,205,-215,,205,205,M,Raw,D,
1,Sejfo Šehović,Bosnia and Herzegovina,64,77.5,M 60-69,82.5,,,,,,,,,,240,260,270,,270,270,M,Raw,D,
2,Frank Horn,Germany,61,70,M 60-69,82.5,,,,,,,,,,170,175,-180,,175,175,M,Raw,D,
3,Günther Däullary,Germany,61,81.9,M 60-69,82.5,,,,,,,,,,160,170,-182.5,,170,170,M,Raw,D,
1,Frank Kutzsch,Germany,67,92.7,M 60-69,95,,,,,,,,,,202.5,-222.5,222.5,,222.5,222.5,M,Raw,D,
3,Lothar Pritzl,Germany,63,91.6,M 60-69,95,,,,,,,,,,155,165,175,,175,175,M,Raw,D,
4,Mieczysłąw Maczka,Germany,69,84,M 60-69,95,,,,,,,,,,130,157.5,,,157.5,157.5,M,Raw,D,
1,Wiesław Wrŏbel,Poland,65,98,M 60-69,110,,,,,,,,,,240,272.5,277.5,,277.5,277.5,M,Raw,D,
2,Brasseur Robert,France,62,108.8,M 60-69,110,,,,,,,,,,200,-220,-220,,200,200,M,Raw,D,
1,Palásti Gábor,Hungary,63,112.8,M 60-69,125,,,,,,,,,,230,250,,,250,250,M,Raw,D,
1,Burkhard Steffen,Germany,73,66.1,M 70-74,67.5,,,,,,,,,,115,125,-132.5,,125,125,M,Raw,D,
1,Gerd Müller,Germany,71,80.1,M 70-74,82.5,,,,,,,,,,150,160,,,160,160,M,Raw,D,
2,Lothar Schulze,Germany,73,82.5,M 70-74,82.5,,,,,,,,,,155,-170,-175,,155,155,M,Raw,D,
1,Jozef Meravý,Slovakia,73,97.7,M 70-74,110,,,,,,,,,,150,-170,,,150,150,M,Raw,D,
1,Jozef Bartek,Slovakia,78,78.8,M 75-79,82.5,,,,,,,,,,70,80,,,80,80,M,Raw,D,
1,Kiss Ladislau,Hungary,75,100.2,M 75-79,110,,,,,,,,,,230,240,,,240,240,M,Raw,D,
1,Viktor Šafránek,Slovakia,29,58.7,Open,67.5,,,,,,,,,,200,220,,,220,220,M,Raw,D,
2,Herbert Langaschek,Austria,26,66.6,Open,67.5,,,,,,,,,,155,-165,-165,,155,155,M,Raw,D,
2,Dražen Benković,Croatia,26,80.7,Open,82.5,,,,,,,,,,145,152.5,-155,,152.5,152.5,M,Raw,D,
DQ,Dominik Šafránek,Slovakia,31,76,Open,82.5,,,,,,,,,,-292.5,-292.5,-295,,,,M,Raw,D,
2,András Vass,Slovakia,28,94,Open,95,,,,,,,,,,280,-300,-300,,280,280,M,Raw,D,
3,Tóth Pál,Hungary,32,90.8,Open,95,,,,,,,,,,255,265,270,,270,270,M,Raw,D,
4,Ammar Pecar,Bosnia and Herzegovina,26,94.1,Open,95,,,,,,,,,,250,-260,-260,,250,250,M,Raw,D,
2,Tomáš Knotek,Slovakia,30,107.2,Open,110,,,,,,,,,,260,-272.5,275,,275,275,M,Raw,D,
3,Matthias Janda,Austria,32,108.3,Open,110,,,,,,,,,,255,265,272.5,,272.5,272.5,M,Raw,D,
4,Lukáš Beran,Czechia,38,102.6,Open,110,,,,,,,,,,240,255,262.5,,262.5,262.5,M,Raw,D,
6,Jakub Janovský,Czechia,37,102.8,Open,110,,,,,,,,,,235,250,-260,,250,250,M,Raw,D,
7,Florian Hartl,Germany,33,107.4,Open,110,,,,,,,,,,190,205,215,,215,215,M,Raw,D,
1,Manuel Edlinger,Austria,38,110.5,Open,125,,,,,,,,,,-250,250,255,,255,255,M,Raw,D,
2,Németh Krisztián,Hungary,27,115.5,Open,125,,,,,,,,,,220,235,-252.5,,235,235,M,Raw,D,
1,Andreas Minuth,Germany,29,139.5,Open,125+,,,,,,,,,,-290,292.5,-312.5,,292.5,292.5,M,Raw,D,
3,Tomáš Thüringer,Slovakia,34,150.9,Open,125+,,,,,,,,,,220,250,-280,,250,250,M,Raw,D,
1,Eva Schneider,Germany,22,102.1,Junior,90+,132.5,140,150,150,90,100,107.5,,107.5,130,140,150,155,150,407.5,F,Multi-ply,SBD,
1,Grzegorz Drewniany,Poland,46,102,M 40-49,110,240,-255,255,255,160,170,180,,180,260,275,285,,285,720,M,Multi-ply,SBD,
1,Ivan Levický,Slovakia,53,104.6,M 50-59,110,200,-220,-230,200,145,160,170,,170,-285,285,,,285,655,M,Multi-ply,SBD,
1,Radoslav Radusinović,Croatia,55,124,M 50-59,125,325,345,,345,220,240,,,240,300,310,,,310,895,M,Multi-ply,SBD,
1,Franz Dallinger,Austria,50,128.2,M 50-59,125+,-200,-200,200,200,180,-190,-190,,180,260,272.5,,,272.5,652.5,M,Multi-ply,SBD,
1,Sergio Bianchi,Italy,63,80.2,M 60-69,82.5,170,190,200,200,65,70,,,70,150,170,,,170,440,M,Multi-ply,SBD,
1,Mieczysłąw Maczka,Germany,69,83.4,M 60-69,95,130,150,,150,95,105,112.5,,112.5,130,147.5,,,147.5,410,M,Multi-ply,SBD,
DQ,Michal Červinka,Slovakia,63,91.6,M 60-69,95,-200,-200,,,,,,,,,,,,,,M,Multi-ply,SBD,
1,Daniel Tatarka,Slovakia,39,79.3,Open,82.5,-250,260,-280,260,160,-180,-180,,160,250,-260,260,,260,680,M,Multi-ply,SBD,
2,Ľubomír Samseli,Slovakia,37,82.1,Open,82.5,200,210,-220,210,160,170,180,,180,235,-250,-250,,235,625,M,Multi-ply,SBD,
3,Ruzbeh Jafarinamin,Austria,37,80.3,Open,82.5,185,200,210,210,125,135,140,,140,185,200,210,,210,560,M,Multi-ply,SBD,
DQ,Tomáš Múdrý,Slovakia,29,91.6,Open,95,-280,-290,-300,,,,,,,,,,,,,M,Multi-ply,SBD,
1,Dávid Bendík,Slovakia,32,104.3,Open,110,-350,350,,350,270,-280,-280,,270,270,300,315,,315,935,M,Multi-ply,SBD,
1,Josef Capouch,Czechia,26,121.8,Open,125,350,370,390,390,220,230,-235,,230,350,-380,-380,,350,970,M,Multi-ply,SBD,
2,Adam Sobek,Slovakia,28,118.2,Open,125,-290,-310,310,310,-210,-210,210,,210,270,290,-300,,290,810,M,Multi-ply,SBD,
1,Tobias Blankenhorn,Germany,34,130.2,Open,125+,-285,285,-310,285,-205,-205,210,,210,250,-270,-300,,250,745,M,Multi-ply,SBD,
1,Zachariás Szandra,Hungary,19,58.2,Teen,60,,,,,65,-70,70,,70,,,,,,70,F,Raw,B,
2,Savanyu Klaudia,Hungary,18,58.2,Teen,60,,,,,45,50,-52.5,,50,,,,,,50,F,Raw,B,
3,Eliška Turynská,Czechia,17,57.2,Teen,60,,,,,35,-40,-40,,35,,,,,,35,F,Raw,B,
1,Theresa Rühle,Germany,22,47.2,Junior,52,,,,,40,45,,,45,,,,,,45,F,Raw,B,
1,Patrycja Trynkiewicz,Poland,23,58.8,Junior,60,,,,,37.5,40,-42.5,,40,,,,,,40,F,Raw,B,
1,Jessica Gißler,Germany,20,64,Junior,67.5,,,,,37.5,-40,-40,,37.5,,,,,,37.5,F,Raw,B,
1,Nagy Anita,Hungary,49,58.3,M 40-49,60,,,,,75,80,85,,85,,,,,,85,F,Raw,B,
1,Molnár Erika,Hungary,46,66.1,M 40-49,67.5,,,,,70,75,-77.5,,75,,,,,,75,F,Raw,B,
2,Sandra Berger,Slovakia,44,62.5,M 40-49,67.5,,,,,62.5,67.5,70,,70,,,,,,70,F,Raw,B,
1,Tatiana Magulová,Slovakia,42,75,M 40-49,82.5,,,,,90,95,100,,100,,,,,,100,F,Raw,B,
2,Andrea Siebert,Germany,41,80.1,M 40-49,82.5,,,,,85,95,100,,100,,,,,,100,F,Raw,B,
3,Szalay Beáta,Hungary,43,77.6,M 40-49,82.5,,,,,70,75,-80,,75,,,,,,75,F,Raw,B,
1,Patricia Luxner,Austria,48,95.4,M 40-49,90+,,,,,90,95,,,95,,,,,,95,F,Raw,B,
2,Claudia Busse,Germany,44,100.8,M 40-49,90+,,,,,77.5,82.5,85,,85,,,,,,85,F,Raw,B,
1,Elisabeth Auer,Austria,43,86.1,M 40-49,90,,,,,50,-55,-55,,50,,,,,,50,F,Raw,B,
1,Egri Ilona,Hungary,50,59.5,M 50-59,60,,,,,55,57.5,-60,,57.5,,,,,,57.5,F,Raw,B,
1,Karin Behrends,Germany,59,73.2,M 50-59,82.5,,,,,70,72.5,-75,,72.5,,,,,,72.5,F,Raw,B,
1,Armenuhi Hambaryan,Armenia,34,52,Open,52,,,,,-35,35,40,-42.5,40,,,,,,40,F,Raw,B,
1,Anna Kubaszewska,Poland,28,57.2,Open,60,,,,,75,80,82.5,,82.5,,,,,,82.5,F,Raw,B,
2,Jana Müller,Germany,38,59.5,Open,60,,,,,75,80,-85,,80,,,,,,80,F,Raw,B,
1,Herczeg Gyöngyi,Hungary,30,66.9,Open,67.5,,,,,95,100,102.5,,102.5,,,,,,102.5,F,Raw,B,
1,Nicole Kegeler,Germany,41,69.4,Open,82.5,,,,,120,130,135,,135,,,,,,135,F,Raw,B,
2,Andrea Siebert,Germany,41,80.1,Open,82.5,,,,,85,95,102.5,,102.5,,,,,,102.5,F,Raw,B,
3,Marcela Támarová,Slovakia,36,82.3,Open,82.5,,,,,85,95,-100,,95,,,,,,95,F,Raw,B,
4,Jemeana Busch,Germany,32,69.2,Open,82.5,,,,,85,90,-95,,90,,,,,,90,F,Raw,B,
5,Marlies Gruber,Austria,25,70.9,Open,82.5,,,,,80,85,-87.5,,85,,,,,,85,F,Raw,B,
6,Natascha Scheidleder,Austria,24,69.7,Open,82.5,,,,,70,75,-85,,75,,,,,,75,F,Raw,B,
7,Mercedes Halbig,Austria,26,76.8,Open,82.5,,,,,70,-80,-82.5,,70,,,,,,70,F,Raw,B,
8,Gombás Viktória,Hungary,35,77.3,Open,82.5,,,,,55,60,-65,,60,,,,,,60,F,Raw,B,
9,Lucie Habart,Germany,31,77.6,Open,82.5,,,,,50,60,-65,,60,,,,,,60,F,Raw,B,
1,Sabine Allner,Germany,39,129.1,Open,90+,,,,,135,145,-155,,145,,,,,,145,F,Raw,B,
1,Miroslav Berki,Slovakia,16,56.3,Teen,67.5,,,,,95,100,105,,105,,,,,,105,M,Raw,B,
1,Dávid Bučok,Slovakia,18,80.4,Teen,82.5,,,,,125,-130,130,,130,,,,,,130,M,Raw,B,
2,Osman Kovalov,Ukraine,16,79.5,Teen,82.5,,,,,90,100,105,,105,,,,,,105,M,Raw,B,
1,Michal Bokroš,Slovakia,16,91.1,Teen,95,,,,,120,132.5,-140,,132.5,,,,,,132.5,M,Raw,B,
1,Busznyák Ferenc,Hungary,18,107.9,Teen,110,,,,,105,115,127.5,,127.5,,,,,,127.5,M,Raw,B,
1,Szalai Kristóf Lajos,Hungary,17,142.2,Teen,125+,,,,,150,160,-170,,160,,,,,,160,M,Raw,B,
1,Marosán Tamás,Hungary,23,53.2,Junior,67.5,,,,,130,137.5,142.5,,142.5,,,,,,142.5,M,Raw,B,
1,David Klukavý,Slovakia,20,80.1,Junior,82.5,,,,,130,137.5,142.5,,142.5,,,,,,142.5,M,Raw,B,
2,Anton Friedl,Slovakia,23,72.8,Junior,82.5,,,,,110,115,-120,,115,,,,,,115,M,Raw,B,
1,Ivan Hajdoni,Slovakia,21,92.3,Junior,95,,,,,-190,190,200.5,,200.5,,,,,,200.5,M,Raw,B,
2,Pavol Pančišin,Slovakia,22,94.6,Junior,95,,,,,150,-160,-160,,150,,,,,,150,M,Raw,B,
3,Linus Zachmayer,Germany,21,90.6,Junior,95,,,,,110,120,-125,,120,,,,,,120,M,Raw,B,
1,Roman Golbinec,Czechia,23,106.1,Junior,110,,,,,190,200,-205,,200,,,,,,200,M,Raw,B,
2,Markus Bischof,Austria,20,99.4,Junior,110,,,,,105,122.5,-125,,122.5,,,,,,122.5,M,Raw,B,
1,Ladislav Gálik,Slovakia,22,150,Junior,125+,,,,,260,270,,,270,,,,,,270,M,Raw,B,
2,Michal Lapihuska,Slovakia,20,127.3,Junior,125+,,,,,180,-190,-190,,180,,,,,,180,M,Raw,B,
1,Ivo Dittrich,Czechia,44,66.6,M 40-49,67.5,,,,,130,140,143.5,,143.5,,,,,,143.5,M,Raw,B,
2,Répás István,Hungary,46,66.2,M 40-49,67.5,,,,,135,140,-142.5,,140,,,,,,140,M,Raw,B,
1,Podmaniczki Tamás,Hungary,44,82,M 40-49,82.5,,,,,140,147.5,150,,150,,,,,,150,M,Raw,B,
2,Barkó Péter,Hungary,48,79.8,M 40-49,82.5,,,,,140,147.5,-150,,147.5,,,,,,147.5,M,Raw,B,
3,Branko Kautz,Germany,44,81,M 40-49,82.5,,,,,125,-130,-130,,125,,,,,,125,M,Raw,B,
4,Pavol Glovacký,Slovakia,46,79,M 40-49,82.5,,,,,110,115,-125,,115,,,,,,115,M,Raw,B,
1,Jozef Kišš,Slovakia,48,93.3,M 40-49,95,,,,,190,195,200,,200,,,,,,200,M,Raw,B,
2,Németh László,Hungary,43,95,M 40-49,95,,,,,-190,190,-197.5,,190,,,,,,190,M,Raw,B,
3,Štefan Sokoly,Slovakia,47,93.5,M 40-49,95,,,,,170,180,185,,185,,,,,,185,M,Raw,B,
4,Szeifert István,Hungary,46,94,M 40-49,95,,,,,-180,185,-190,,185,,,,,,185,M,Raw,B,
5,Marcin Szreiber,Poland,42,83.3,M 40-49,95,,,,,155,162.5,165,,165,,,,,,165,M,Raw,B,
6,Stanislav Tůma,Czechia,46,92.5,M 40-49,95,,,,,155,162.5,165,,165,,,,,,165,M,Raw,B,
7,Marcel Sanftleben,Germany,44,94.6,M 40-49,95,,,,,150,160,165,,165,,,,,,165,M,Raw,B,
8,Andrzej Juraszek,Poland,45,94.3,M 40-49,95,,,,,155,160,-165,,160,,,,,,160,M,Raw,B,
9,Josef Rothensteiner,Austria,47,92.2,M 40-49,95,,,,,152.5,-157.5,-162.5,,152.5,,,,,,152.5,M,Raw,B,
1,Jan Habart,Germany,46,109.4,M 40-49,110,,,,,230,240,241,,241,,,,,,241,M,Raw,B,
2,Bocz Tamás,Hungary,41,109.2,M 40-49,110,,,,,202.5,210,215,,215,,,,,,215,M,Raw,B,
3,Marcel Marossow,Germany,47,103.8,M 40-49,110,,,,,195,-202.5,-202.5,,195,,,,,,195,M,Raw,B,
4,Denys Kovalov,Ukraine,45,101.8,M 40-49,110,,,,,190,-200,-200,,190,,,,,,190,M,Raw,B,
5,Antal Zsolt,Hungary,48,108.9,M 40-49,110,,,,,177.5,182.5,-187.5,,182.5,,,,,,182.5,M,Raw,B,
6,Klaus Steinbock,Austria,42,102.6,M 40-49,110,,,,,162.5,172.5,177.5,,177.5,,,,,,177.5,M,Raw,B,
7,Bajzák György,Hungary,40,109.1,M 40-49,110,,,,,165,170,175,,175,,,,,,175,M,Raw,B,
8,Johannes Krafft,Germany,44,105.3,M 40-49,110,,,,,145,152.5,155,,155,,,,,,155,M,Raw,B,
1,Christian Raidel,Austria,41,122.3,M 40-49,125,,,,,217.5,220,222.5,,222.5,,,,,,222.5,M,Raw,B,
2,Sebők András,Hungary,46,112.8,M 40-49,125,,,,,-217.5,217.5,220,,220,,,,,,220,M,Raw,B,
3,Somogyi Gábor,Hungary,43,119.2,M 40-49,125,,,,,182.5,192.5,200,,200,,,,,,200,M,Raw,B,
4,Matthias Hörning,Germany,48,119.6,M 40-49,125,,,,,172.5,-177.5,177.5,,177.5,,,,,,177.5,M,Raw,B,
5,Dr. Papp György Bálint,Hungary,49,114.1,M 40-49,125,,,,,150,-160,165,,165,,,,,,165,M,Raw,B,
6,Jozef Minár,Slovakia,47,116.9,M 40-49,125,,,,,160,-165,,,160,,,,,,160,M,Raw,B,
1,Marek Makarewicz,Poland,44,126,M 40-49,125+,,,,,205,-210,-210,,205,,,,,,205,M,Raw,B,
2,Marek Lipták,Slovakia,44,131.5,M 40-49,125+,,,,,205,-215,,,205,,,,,,205,M,Raw,B,
3,Sándor Vörös,Slovakia,48,135.8,M 40-49,125+,,,,,190,200,205,,205,,,,,,205,M,Raw,B,
4,Roman Werner,Austria,45,128.2,M 40-49,125+,,,,,192.5,202.5,,,202.5,,,,,,202.5,M,Raw,B,
5,Radovan Tellner,Czechia,40,136.4,M 40-49,125+,,,,,190,200,-207.5,,200,,,,,,200,M,Raw,B,
6,Michael Pischinger,Austria,45,126.3,M 40-49,125+,,,,,195,-207.5,-207.5,,195,,,,,,195,M,Raw,B,
7,Ujvári Gyula,Hungary,45,134.7,M 40-49,125+,,,,,185,195,-205,,195,,,,,,195,M,Raw,B,
8,Matthias Fanselow,Germany,47,127.2,M 40-49,125+,,,,,170,-180,-180,,170,,,,,,170,M,Raw,B,
9,Lukács Roland,Hungary,48,128,M 40-49,125+,,,,,170,-180,-182.5,,170,,,,,,170,M,Raw,B,
10,Krzysztof Halczyk,Poland,48,125.4,M 40-49,125+,,,,,160,-165,-165,,160,,,,,,160,M,Raw,B,
11,Manuel Steiner,Austria,42,138.1,M 40-49,125+,,,,,120,127.5,132.5,,132.5,,,,,,132.5,M,Raw,B,
12,Ernst Steinauer,Austria,42,183.3,M 40-49,125+,,,,,115,122.5,127.5,,127.5,,,,,,127.5,M,Raw,B,
1,Mirko Jaedtke-Schulze,Germany,56,67.3,M 50-59,67.5,,,,,102.5,110,,,110,,,,,,110,M,Raw,B,
1,Karlik Zsolt,Hungary,51,75.2,M 50-59,82.5,,,,,150,160,-162.5,,160,,,,,,160,M,Raw,B,
2,Aranyász János,Hungary,51,80.6,M 50-59,82.5,,,,,150,160,-162.5,,160,,,,,,160,M,Raw,B,
3,Vincent Karička,Slovakia,56,75.1,M 50-59,82.5,,,,,120,125,130,,130,,,,,,130,M,Raw,B,
4,Piotr Jurkiewicz,Poland,57,74.8,M 50-59,82.5,,,,,105,110,115,,115,,,,,,115,M,Raw,B,
1,Piotr Strzała,UK,56,94,M 50-59,95,,,,,165,175,-180,,175,,,,,,175,M,Raw,B,
2,Sławomír Purta,Poland,50,91,M 50-59,95,,,,,165,170,-175,,170,,,,,,170,M,Raw,B,
3,František Sajko,Slovakia,52,93,M 50-59,95,,,,,150,160,167.5,,167.5,,,,,,167.5,M,Raw,B,
4,Mario Auer,Austria,50,91.3,M 50-59,95,,,,,145,155,-165,,155,,,,,,155,M,Raw,B,
5,Reinhard Müller,Austria,55,84.5,M 50-59,95,,,,,100,107.5,112.5,,112.5,,,,,,112.5,M,Raw,B,
1,František Nováček,Czechia,58,108.6,M 50-59,110,,,,,180,185,190,,190,,,,,,190,M,Raw,B,
2,Milan Pado,Slovakia,51,103.6,M 50-59,110,,,,,165,177.5,185,,185,,,,,,185,M,Raw,B,
3,Oldřich Procházka,Czechia,52,106.3,M 50-59,110,,,,,170,180,-190,,180,,,,,,180,M,Raw,B,
4,Marosi Attila,Hungary,50,95.7,M 50-59,110,,,,,162.5,-167.5,-167.5,,162.5,,,,,,162.5,M,Raw,B,
5,Thorsten Ritter,Germany,59,99.9,M 50-59,110,,,,,140,150,-155,,150,,,,,,150,M,Raw,B,
6,Franz Gansinger,Austria,55,105.2,M 50-59,110,,,,,140,150,-157.5,,150,,,,,,150,M,Raw,B,
1,Günther Hold,Austria,56,114.8,M 50-59,125,,,,,205,211,,,211,,,,,,211,M,Raw,B,
2,Krzysztof Bożyczko-Jałocha,Poland,58,111.8,M 50-59,125,,,,,200,207.5,,,207.5,,,,,,207.5,M,Raw,B,
3,Christian Smith,Switzerland,56,119,M 50-59,125,,,,,-185,192.5,200,,200,,,,,,200,M,Raw,B,
4,Timo Schütt,Germany,50,124.8,M 50-59,125,,,,,180,192.5,-195,,192.5,,,,,,192.5,M,Raw,B,
5,Minya Gábor,Hungary,53,122.6,M 50-59,125,,,,,175,185,-187.5,,185,,,,,,185,M,Raw,B,
6,Joachim Krebs,Austria,55,112.6,M 50-59,125,,,,,150,-155,155,,155,,,,,,155,M,Raw,B,
1,Horvath Laszlo,Hungary,51,126.4,M 50-59,125+,,,,,190,200,-207.5,,200,,,,,,200,M,Raw,B,
2,Mario Prünster,Austria,55,136.2,M 50-59,125+,,,,,175,182.5,190,,190,,,,,,190,M,Raw,B,
3,Grzegorz Kantor,Poland,51,137,M 50-59,125+,,,,,160,-170,-170,,160,,,,,,160,M,Raw,B,
4,Slobodan Marković,Serbia,53,129.9,M 50-59,125+,,,,,145,155,-157.5,,155,,,,,,155,M,Raw,B,
1,Thomas Graf von Falkenstein,Germany,60,66.4,M 60-69,67.5,,,,,127.5,130,130.5,,130.5,,,,,,130.5,M,Raw,B,
1,Tahvo Jauhojärvi,Sweden,61,73.9,M 60-69,82.5,,,,,120,130,137.5,,137.5,,,,,,137.5,M,Raw,B,
2,Andreas Dr. Günther,Germany,60,81.4,M 60-69,82.5,,,,,120,127.5,-132.5,,127.5,,,,,,127.5,M,Raw,B,
3,Manfred Seitz,Germany,65,79.5,M 60-69,82.5,,,,,105,107.5,-110,,107.5,,,,,,107.5,M,Raw,B,
1,Ralf Hubel,Germany,67,92.4,M 60-69,95,,,,,135,-155,160,,160,,,,,,160,M,Raw,B,
2,Frank Kutzsch,Germany,67,93,M 60-69,95,,,,,145,150,-155,,150,,,,,,150,M,Raw,B,
3,Rene Hobohom,Germany,62,94.2,M 60-69,95,,,,,145,150,-152.5,,150,,,,,,150,M,Raw,B,
4,Živorad Marković,Serbia,62,91.1,M 60-69,95,,,,,135,140,-147.5,,140,,,,,,140,M,Raw,B,
5,Lothar Pritzl,Germany,63,90.9,M 60-69,95,,,,,100,105,110,,110,,,,,,110,M,Raw,B,
DQ,Mieczysłąw Maczka,Germany,69,84.3,M 60-69,95,,,,,-95,-95,,,,,,,,,,M,Raw,B,
1,Frank Schütze,Germany,60,108.1,M 60-69,110,,,,,180,185,187.5,,187.5,,,,,,187.5,M,Raw,B,
2,Krzysztof Kłopocki,Poland,64,104.9,M 60-69,110,,,,,172.5,180,-185,,180,,,,,,180,M,Raw,B,
3,Jaroslav Šolc,Slovakia,66,105.2,M 60-69,110,,,,,155,160,165,,165,,,,,,165,M,Raw,B,
4,Július Vrbiniak,Slovakia,66,105.6,M 60-69,110,,,,,140,145,-150,,145,,,,,,145,M,Raw,B,
5,Jozef Belica,Slovakia,67,108,M 60-69,110,,,,,-130,130,-150,,130,,,,,,130,M,Raw,B,
1,Michael Harke,Germany,60,117.4,M 60-69,125,,,,,150,162.5,167.5,,167.5,,,,,,167.5,M,Raw,B,
2,Adam Urbański,Poland,61,111.6,M 60-69,125,,,,,150,160,-167.5,,160,,,,,,160,M,Raw,B,
1,Dávid Henrik Rudolf,Hungary,70,66.8,M 70-74,67.5,,,,,85,,86,,86,,,,,,86,M,Raw,B,
1,Gerd Müller,Germany,71,80.3,M 70-74,82.5,,,,,100,110,115,,115,,,,,,115,M,Raw,B,
1,Kurt Schoula,Germany,70,92.1,M 70-74,95,,,,,140.5,150,,,150,,,,,,150,M,Raw,B,
1,Jozef Meravý,Slovakia,73,97.9,M 70-74,110,,,,,70,85,-90,,85,,,,,,85,M,Raw,B,
1,Erwin Trichlin,Austria,84,63.9,M 75-79,67.5,,,,,70,77.5,-80,,77.5,,,,,,77.5,M,Raw,B,
1,Albert Olomek,Germany,76,91.6,M 75-79,95,,,,,120,130,,,130,,,,,,130,M,Raw,B,
1,Assirelli Marc,France,75,95.6,M 75-79,110,,,,,90,100,105,,105,,,,,,105,M,Raw,B,
2,Heiner Dr. Schildbach,Germany,80,95.1,M 75-79,110,,,,,85,90,-92.5,,90,,,,,,90,M,Raw,B,
3,Hans-Jürgen Kuhlmey,Germany,81,96.4,M 75-79,110,,,,,50,55,60,,60,,,,,,60,M,Raw,B,
1,Áder Benjámin,Hungary,24,65.6,Open,67.5,,,,,135,142.5,-147.5,,142.5,,,,,,142.5,M,Raw,B,
2,Ivo Dittrich,Czechia,44,66.6,Open,67.5,,,,,140,-145,-145,,140,,,,,,140,M,Raw,B,
3,Herbert Langaschek,Austria,26,67,Open,67.5,,,,,117.5,-122.5,-122.5,,117.5,,,,,,117.5,M,Raw,B,
4,Adriano Galvez,Austria,26,66.4,Open,67.5,,,,,100,107.5,110,,110,,,,,,110,M,Raw,B,
5,Antonello Caviola,Italy,30,66.8,Open,67.5,,,,,97.5,102.5,-110,,102.5,,,,,,102.5,M,Raw,B,
1,Molnár Gábor,Hungary,30,81.9,Open,82.5,,,,,160,170,180,,180,,,,,,180,M,Raw,B,
2,Száraz Bálint,Hungary,24,82.2,Open,82.5,,,,,175,-185,-185,,175,,,,,,175,M,Raw,B,
3,Ismail Viran,Switzerland,30,81.4,Open,82.5,,,,,145,150,-152.5,,150,,,,,,150,M,Raw,B,
4,Patrick Peterlechner,Austria,31,81.1,Open,82.5,,,,,140,145,147.5,,147.5,,,,,,147.5,M,Raw,B,
5,Michael Hinz,Germany,29,82.3,Open,82.5,,,,,-135,137.5,140,,140,,,,,,140,M,Raw,B,
1,Oláh Ákos,Hungary,34,94,Open,95,,,,,200,210,217.5,,217.5,,,,,,217.5,M,Raw,B,
2,Tadeusz Tessmer,Poland,33,94.9,Open,95,,,,,-205,210,-217.5,,210,,,,,,210,M,Raw,B,
3,Axel Kujat,Germany,35,93.8,Open,95,,,,,-190,195,-200,,195,,,,,,195,M,Raw,B,
4,Patrick Gerhartl,Austria,30,93,Open,95,,,,,190,-200,,,190,,,,,,190,M,Raw,B,
5,Zdeněk Marvan,Czechia,26,88.3,Open,95,,,,,180,-190,-190,,180,,,,,,180,M,Raw,B,
6,Kamil Babiš,Czechia,31,92.7,Open,95,,,,,180,-190,,,180,,,,,,180,M,Raw,B,
7,Hadházi Balázs,Hungary,33,92,Open,95,,,,,-167.5,167.5,-172.5,,167.5,,,,,,167.5,M,Raw,B,
8,David Fellner,Austria,25,92.5,Open,95,,,,,160,165,-172.5,,165,,,,,,165,M,Raw,B,
9,Ewald Scheibenpflug,Austria,27,94.5,Open,95,,,,,145,155,165,,165,,,,,,165,M,Raw,B,
DQ,Krzysztof Mandziak,Poland,32,89.2,Open,95,,,,,-195,-195,-195,,,,,,,,,M,Raw,B,
1,Moszkál Ádám,Hungary,27,109.6,Open,110,,,,,255,-265,265,270.5,265,,,,,,265,M,Raw,B,
2,Adrian Grabski,Poland,41,108.4,Open,110,,,,,-230,240,-245,,240,,,,,,240,M,Raw,B,
3,Jan Habart,Germany,46,109.4,Open,110,,,,,235,240,-250,,240,,,,,,240,M,Raw,B,
4,Manuel Edlinger,Austria,38,108.2,Open,110,,,,,180,192.5,-200,,192.5,,,,,,192.5,M,Raw,B,
5,Raphael Kaufmann,Austria,24,108.4,Open,110,,,,,157.5,167.5,172.5,,172.5,,,,,,172.5,M,Raw,B,
6,Thomas Böswarth,Austria,33,102.3,Open,110,,,,,150,160,167.5,,167.5,,,,,,167.5,M,Raw,B,
7,Mariusz Małkowski,Poland,36,102.1,Open,110,,,,,-160,160,-170,,160,,,,,,160,M,Raw,B,
8,Florian Hartl,Germany,33,108.4,Open,110,,,,,130,140,-150,,140,,,,,,140,M,Raw,B,
1,Johannes Mauracher,Austria,41,122,Open,125,,,,,230,240,,,240,,,,,,240,M,Raw,B,
2,Stanislav Močkor,Slovakia,27,114.8,Open,125,,,,,220,-230,-230,,220,,,,,,220,M,Raw,B,
3,Šimon Elischer,Slovakia,27,111.4,Open,125,,,,,180,197.5,205,,205,,,,,,205,M,Raw,B,
4,Péter Forgács,Hungary,34,118.1,Open,125,,,,,197.5,202.5,-205,,202.5,,,,,,202.5,M,Raw,B,
1,Kovács Dénes,Hungary,32,131,Open,125+,,,,,245,252.5,255,,255,,,,,,255,M,Raw,B,
2,Keamo Schultheis,Germany,29,146.4,Open,125+,,,,,237.5,245,250,,250,,,,,,250,M,Raw,B,
3,Imrich Vörös,Slovakia,39,167.8,Open,125+,,,,,205,217.5,230,,230,,,,,,230,M,Raw,B,
4,Krzysztof Cieślak,Poland,38,128.9,Open,125+,,,,,215,-225,-227.5,,215,,,,,,215,M,Raw,B,
5,Mohamed Anwar,Hungary,38,134.8,Open,125+,,,,,200,210,-217.5,,210,,,,,,210,M,Raw,B,
6,Radovan Tellner,Czechia,40,136.4,Open,125+,,,,,190,200,,,200,,,,,,200,M,Raw,B,
7,Pouya Jalilian,Austria,36,140.3,Open,125+,,,,,165,-175,180,,180,,,,,,180,M,Raw,B,
8,Robert Kiss,Slovakia,35,132.7,Open,125+,,,,,150,-160,-165,,150,,,,,,150,M,Raw,B,
